…
``` r
### 5. Filter observations in your data according to your own criteria. Think of what you’d like to explore - again, if this was the titanic dataset, I may want to narrow my search down to passengers born in a particular year…

# This shows only the maximum type of flow data, as our data contains both maximum and minimum flow
maxflow <- filter(flow_sample, extreme_type == "maximum")
maxflow
```

    ## # A tibble: 109 × 7
    ##    station_id  year extreme_type month   day  flow sym  
    ##    <chr>      <dbl> <chr>        <dbl> <dbl> <dbl> <chr>
    ##  1 05BB001     1909 maximum          7     7   314 <NA> 
    ##  2 05BB001     1910 maximum          6    12   230 <NA> 
    ##  3 05BB001     1911 maximum          6    14   264 <NA> 
    ##  4 05BB001     1912 maximum          8    25   174 <NA> 
    ##  5 05BB001     1913 maximum          6    11   232 <NA> 
    ##  6 05BB001     1914 maximum          6    18   214 <NA> 
    ##  7 05BB001     1915 maximum          6    27   236 <NA> 
    ##  8 05BB001     1916 maximum          6    20   309 <NA> 
    ##  9 05BB001     1917 maximum          6    17   174 <NA> 
    ## 10 05BB001     1918 maximum          6    15   345 <NA> 
    ## # … with 99 more rows
…
